{
  "files": {
    "brain7": "brain7.png",
    "hhHHHAAAH": "hhHHHAAAH.png",
    "bill": "bill.png",
    "sadglasses": "sadglasses.png",
    "oh_no": "oh_no.png",
    "boob": "boob.png",
    "trans_egg": "trans_egg.png",
    "fingerguns": "fingerguns.png",
    "clippy": "clippy.png",
    "grr_peek": "grr_peek.png",
    "oof": "oof.png",
    "purple_sparkling_heart": "purple_sparkling_heart.png",
    "sparkling_trans_heart": "sparkling_trans_heart.png",
    "pat_potato": "pat_potato.png",
    "succ": "succ.png",
    "ghs_flammable": "ghs_flammable.png",
    "palaref": "palaref.png",
    "brain3": "brain3.png",
    "people_hugging": "people_hugging.png",
    "trash": "trash.png",
    "owo_thanking": "owo_thanking.png",
    "unsure_fry": "unsure_fry.png",
    "burning_poop": "burning_poop.png",
    "surprised_pikachu": "surprised_pikachu.png",
    "acab": "acab.png",
    "brain2": "brain2.png",
    "angery": "angery.png",
    "amaze": "amaze.png",
    "chat_jpg": "chat_jpg.png",
    "ghs_explosive": "ghs_explosive.png",
    "loading": "loading.png",
    "drake_dislike": "drake_dislike.png",
    "brain6": "brain6.png",
    "transgender_flag": "transgender_flag.png",
    "octothink": "octothink.png",
    "eyes_thaenkin": "eyes_thaenkin.png",
    "chat384_2": "chat384_2.png",
    "goose_honk": "goose_honk.png",
    "ghs_toxic": "ghs_toxic.png",
    "birdsite": "birdsite.png",
    "chat384_1": "chat384_1.png",
    "brain1": "brain1.png",
    "boost_requested": "boost_requested.png",
    "boost_denied": "boost_denied.png",
    "bibiche": "bibiche.png",
    "anartrans": "anartrans.png",
    "missigno": "missigno.png",
    "feministfist": "feministfist.png",
    "brain4": "brain4.png",
    "ghs_corrosive": "ghs_corrosive.png",
    "elthree": "elthree.png",
    "alpha_dolan": "alpha_dolan.png",
    "eyeroll": "eyeroll.png",
    "drake_like": "drake_like.png",
    "coolhhHHAAAHHH": "coolhhHHAAAHHH.png",
    "grr": "grr.png",
    "anarchy": "anarchy.png",
    "anarchist_flag": "anarchist_flag.png",
    "bigmood": "bigmood.png",
    "cannabis_leaf": "cannabis_leaf.png"
  },
  "pack": {},
  "files_count": 0
}